1605869260.5569012;uoc-trough/system;restart
1609659809.1167707;uoc-trough/cmd;3
1609659869.3743498;uoc-trough/cmd;3
1609659982.6269374;uoc-trough/cmd;upload_data
1609660042.9170306;uoc-trough/cmd;3
1609660103.1739945;uoc-trough/cmd;3
1609660163.415945;uoc-trough/cmd;3
1609660223.675925;uoc-trough/cmd;3
1609660283.889817;uoc-trough/cmd;3
1609660299.6688871;uoc-trough/cmd/kill;1
